^C:\USERS\PLATO\SOURCE\REPOS\MYSUMSQUARE\MYSUMSQUARE.CPP
C:\USERS\PLATO\SOURCE\REPOS\MYSUMSQUARE\X64\DEBUG\VC143.PDB
C:\USERS\PLATO\SOURCE\REPOS\MYSUMSQUARE\X64\DEBUG\VC143.IDB
C:\USERS\PLATO\SOURCE\REPOS\MYSUMSQUARE\X64\DEBUG\MYSUMSQUARE.OBJ
